<svg xmlns="http://www.w3.org/2000/svg" width="22" height="16" viewBox="0 0 22 16">
    <g fill="#FFF" fill-rule="evenodd">
        <path d="M2 0l9.625 6.61L20.947 0z"/>
        <path d="M0 15.607h21.77V2.027L11.08 9.61 0 2z"/>
    </g>
</svg>
